^C:\USERS\TERPY\DOCUMENTS\PROGRAMMING\C++\NEW REPO\NWK.TICTACTOE\NWK.TICTACTOE\DEBUG\MAIN.OBJ
C:\USERS\TERPY\DOCUMENTS\PROGRAMMING\C++\NEW REPO\NWK.TICTACTOE\DEBUG\NWK.TICTACTOE.EXE
C:\USERS\TERPY\DOCUMENTS\PROGRAMMING\C++\NEW REPO\NWK.TICTACTOE\DEBUG\NWK.TICTACTOE.ILK
C:\USERS\TERPY\DOCUMENTS\PROGRAMMING\C++\NEW REPO\NWK.TICTACTOE\DEBUG\NWK.TICTACTOE.PDB
